Arbitro.vcd
$date
	Wed Jul 14 21:09:10 2021
$end
$version
	Icarus Verilog
$end
$timescale
	1ns
$end
$scope module BUF $end
$var wire 1 ! A $end
$var wire 1 " Y $end
$upscope $end
$scope module BancoPruebas_arbitro $end
$var wire 1 # push0 $end
$var wire 1 $ push1 $end
$var wire 1 % push2 $end
$var wire 1 & push3 $end
$var wire 4 ' state [3:0] $end
$var wire 1 ( push_estruct $end
$var wire 1 ) push $end
$var wire 1 * pop3_estruct $end
$var wire 1 + pop3 $end
$var wire 1 , pop2_estruct $end
$var wire 1 - pop2 $end
$var wire 1 . pop1_estruct $end
$var wire 1 / pop1 $end
$var wire 1 0 pop0_estruct $end
$var wire 1 1 pop0 $end
$var wire 1 2 empty3_naranja $end
$var wire 1 3 empty3_morado $end
$var wire 1 4 empty2_naranja $end
$var wire 1 5 empty2_morado $end
$var wire 1 6 empty1_naranja $end
$var wire 1 7 empty1_morado $end
$var wire 1 8 empty0_naranja $end
$var wire 1 9 empty0_morado $end
$var wire 8 : empties_estruct [7:0] $end
$var wire 8 ; empties [7:0] $end
$var wire 1 < clk $end
$var wire 1 = almost_full3 $end
$var wire 1 > almost_full2 $end
$var wire 1 ? almost_full1 $end
$var wire 1 @ almost_full0 $end
$scope module Probador $end
$var wire 1 ( push_estruct $end
$var wire 1 ) push $end
$var wire 1 + pop3 $end
$var wire 1 - pop2 $end
$var wire 1 / pop1 $end
$var wire 1 1 pop0 $end
$var wire 8 A empties_estruct [7:0] $end
$var wire 8 B empties [7:0] $end
$var reg 1 @ almost_full0 $end
$var reg 1 ? almost_full1 $end
$var reg 1 > almost_full2 $end
$var reg 1 = almost_full3 $end
$var reg 1 < clk $end
$var reg 1 9 empty0_morado $end
$var reg 1 8 empty0_naranja $end
$var reg 1 7 empty1_morado $end
$var reg 1 6 empty1_naranja $end
$var reg 1 5 empty2_morado $end
$var reg 1 4 empty2_naranja $end
$var reg 1 3 empty3_morado $end
$var reg 1 2 empty3_naranja $end
$var reg 4 C state [3:0] $end
$upscope $end
$scope module arbitro_conductual $end
$var wire 1 @ almost_full0 $end
$var wire 1 ? almost_full1 $end
$var wire 1 > almost_full2 $end
$var wire 1 = almost_full3 $end
$var wire 1 < clk $end
$var wire 1 9 empty0_morado $end
$var wire 1 8 empty0_naranja $end
$var wire 1 7 empty1_morado $end
$var wire 1 6 empty1_naranja $end
$var wire 1 5 empty2_morado $end
$var wire 1 4 empty2_naranja $end
$var wire 1 3 empty3_morado $end
$var wire 1 2 empty3_naranja $end
$var wire 1 # push0 $end
$var wire 1 $ push1 $end
$var wire 1 % push2 $end
$var wire 1 & push3 $end
$var wire 4 D state [3:0] $end
$var reg 8 E empties [7:0] $end
$var reg 1 1 pop0 $end
$var reg 1 / pop1 $end
$var reg 1 - pop2 $end
$var reg 1 + pop3 $end
$var reg 1 ) push $end
$upscope $end
$scope module arbitro_estructural $end
$var wire 1 @ almost_full0 $end
$var wire 1 ? almost_full1 $end
$var wire 1 > almost_full2 $end
$var wire 1 = almost_full3 $end
$var wire 1 < clk $end
$var wire 1 9 empty0_morado $end
$var wire 1 8 empty0_naranja $end
$var wire 1 7 empty1_morado $end
$var wire 1 6 empty1_naranja $end
$var wire 1 5 empty2_morado $end
$var wire 1 4 empty2_naranja $end
$var wire 1 3 empty3_morado $end
$var wire 1 2 empty3_naranja $end
$var wire 1 # push0 $end
$var wire 1 $ push1 $end
$var wire 1 % push2 $end
$var wire 1 & push3 $end
$var wire 4 F state [3:0] $end
$var wire 1 ( push $end
$var wire 1 * pop3 $end
$var wire 1 , pop2 $end
$var wire 1 . pop1 $end
$var wire 1 0 pop0 $end
$var wire 8 G empties [7:0] $end
$var wire 1 H _27_ $end
$var wire 1 I _26_ $end
$var wire 1 J _25_ $end
$var wire 1 K _24_ $end
$var wire 1 L _23_ $end
$var wire 1 M _22_ $end
$var wire 1 N _21_ $end
$var wire 1 O _20_ $end
$var wire 1 P _19_ $end
$var wire 1 Q _18_ $end
$var wire 1 R _17_ $end
$var wire 1 S _16_ $end
$var wire 1 T _15_ $end
$var wire 1 U _14_ $end
$var wire 1 V _13_ $end
$var wire 1 W _12_ $end
$var wire 1 X _11_ $end
$var wire 1 Y _10_ $end
$var wire 1 Z _09_ $end
$var wire 1 [ _08_ $end
$var wire 1 \ _07_ $end
$var wire 1 ] _06_ $end
$var wire 1 ^ _05_ $end
$var wire 1 _ _04_ $end
$var wire 1 ` _03_ $end
$var wire 1 a _02_ $end
$var wire 1 b _01_ $end
$var wire 1 c _00_ $end
$scope module _28_ $end
$var wire 1 d A $end
$var wire 1 b Y $end
$upscope $end
$scope module _29_ $end
$var wire 1 3 A $end
$var wire 1 a Y $end
$upscope $end
$scope module _30_ $end
$var wire 1 5 A $end
$var wire 1 ` Y $end
$upscope $end
$scope module _31_ $end
$var wire 1 7 A $end
$var wire 1 _ Y $end
$upscope $end
$scope module _32_ $end
$var wire 1 9 A $end
$var wire 1 ^ Y $end
$upscope $end
$scope module _33_ $end
$var wire 1 2 A $end
$var wire 1 ] Y $end
$upscope $end
$scope module _34_ $end
$var wire 1 4 A $end
$var wire 1 \ Y $end
$upscope $end
$scope module _35_ $end
$var wire 1 6 A $end
$var wire 1 [ Y $end
$upscope $end
$scope module _36_ $end
$var wire 1 8 A $end
$var wire 1 Z Y $end
$upscope $end
$scope module _37_ $end
$var wire 1 % A $end
$var wire 1 Y Y $end
$upscope $end
$scope module _38_ $end
$var wire 1 e A $end
$var wire 1 f B $end
$var wire 1 X Y $end
$upscope $end
$scope module _39_ $end
$var wire 1 X A $end
$var wire 1 W Y $end
$upscope $end
$scope module _40_ $end
$var wire 1 b A $end
$var wire 1 g B $end
$var wire 1 V Y $end
$upscope $end
$scope module _41_ $end
$var wire 1 W A $end
$var wire 1 V B $end
$var wire 1 U Y $end
$upscope $end
$scope module _42_ $end
$var wire 1 U A $end
$var wire 1 c Y $end
$upscope $end
$scope module _43_ $end
$var wire 1 a A $end
$var wire 1 U B $end
$var wire 1 h Y $end
$upscope $end
$scope module _44_ $end
$var wire 1 ` A $end
$var wire 1 U B $end
$var wire 1 i Y $end
$upscope $end
$scope module _45_ $end
$var wire 1 _ A $end
$var wire 1 U B $end
$var wire 1 j Y $end
$upscope $end
$scope module _46_ $end
$var wire 1 ^ A $end
$var wire 1 U B $end
$var wire 1 k Y $end
$upscope $end
$scope module _47_ $end
$var wire 1 ] A $end
$var wire 1 U B $end
$var wire 1 l Y $end
$upscope $end
$scope module _48_ $end
$var wire 1 \ A $end
$var wire 1 U B $end
$var wire 1 m Y $end
$upscope $end
$scope module _49_ $end
$var wire 1 [ A $end
$var wire 1 U B $end
$var wire 1 n Y $end
$upscope $end
$scope module _50_ $end
$var wire 1 Z A $end
$var wire 1 U B $end
$var wire 1 o Y $end
$upscope $end
$scope module _51_ $end
$var wire 1 @ A $end
$var wire 1 ? B $end
$var wire 1 T Y $end
$upscope $end
$scope module _52_ $end
$var wire 1 > A $end
$var wire 1 = B $end
$var wire 1 S Y $end
$upscope $end
$scope module _53_ $end
$var wire 1 T A $end
$var wire 1 S B $end
$var wire 1 R Y $end
$upscope $end
$scope module _54_ $end
$var wire 1 U A $end
$var wire 1 R B $end
$var wire 1 Q Y $end
$upscope $end
$scope module _55_ $end
$var wire 1 6 A $end
$var wire 1 $ B $end
$var wire 1 P Y $end
$upscope $end
$scope module _56_ $end
$var wire 1 8 A $end
$var wire 1 # B $end
$var wire 1 O Y $end
$upscope $end
$scope module _57_ $end
$var wire 1 P A $end
$var wire 1 O B $end
$var wire 1 N Y $end
$upscope $end
$scope module _58_ $end
$var wire 1 Q A $end
$var wire 1 N B $end
$var wire 1 M Y $end
$upscope $end
$scope module _59_ $end
$var wire 1 \ A $end
$var wire 1 Y B $end
$var wire 1 L Y $end
$upscope $end
$scope module _60_ $end
$var wire 1 2 A $end
$var wire 1 & B $end
$var wire 1 K Y $end
$upscope $end
$scope module _61_ $end
$var wire 1 L A $end
$var wire 1 K B $end
$var wire 1 J Y $end
$upscope $end
$scope module _62_ $end
$var wire 1 M A $end
$var wire 1 J B $end
$var wire 1 * Y $end
$upscope $end
$scope module _63_ $end
$var wire 1 M A $end
$var wire 1 L B $end
$var wire 1 , Y $end
$upscope $end
$scope module _64_ $end
$var wire 1 Q A $end
$var wire 1 P B $end
$var wire 1 I Y $end
$upscope $end
$scope module _65_ $end
$var wire 1 O A $end
$var wire 1 I B $end
$var wire 1 . Y $end
$upscope $end
$scope module _66_ $end
$var wire 1 Q A $end
$var wire 1 O B $end
$var wire 1 H Y $end
$upscope $end
$scope module _67_ $end
$var wire 1 H A $end
$var wire 1 0 Y $end
$upscope $end
$scope module _68_ $end
$var wire 1 < C $end
$var wire 1 c D $end
$var reg 1 ( Q $end
$upscope $end
$upscope $end
$upscope $end
$scope module DFFSR $end
$var wire 1 p C $end
$var wire 1 q D $end
$var wire 1 r R $end
$var wire 1 s S $end
$var reg 1 t Q $end
$upscope $end
$enddefinitions $end
#0
$dumpvars
xt
zs
zr
zq
zp
0o
0n
0m
0l
0k
0j
0i
0h
1g
0f
0e
0d
0c
1b
1a
1`
1_
1^
1]
1\
1[
1Z
zY
1X
0W
0V
1U
1T
1S
0R
0Q
xP
xO
xN
1M
xL
xK
xJ
1I
1H
b0 G
b1 F
b0 E
b1 D
b1 C
b0 B
b0 A
0@
0?
0>
0=
0<
b0 ;
b0 :
09
08
07
06
05
04
03
02
01
00
0/
0.
0-
0,
0+
0*
x)
x(
b1 '
z&
z%
z$
z#
z"
z!
$end
#2
0)
0(
1<
#4
0<
#6
x*
x,
x.
x0
xM
xI
xH
1Q
1c
0U
1W
0X
1V
1e
0g
b10 '
b10 C
b10 D
b10 F
1<
#8
0<
#10
1)
1(
1<
#12
0<
#14
00
1H
b1 :
b1 A
b1 G
1o
0O
b1 ;
b1 B
b1 E
0Z
18
1<
#16
0<
#18
0*
0,
0.
1M
1I
0Q
1R
0T
1?
1<
#20
0<
#22
1N
b11 :
b11 A
b11 G
1n
0P
b11 ;
b11 B
b11 E
0[
16
1<
#24
0<
#26
0@
1<
#28
0<
#30
b111 :
b111 A
b111 G
1m
1L
b111 ;
b111 B
b111 E
0\
14
1<
#32
0<
#34
0@
1<
#36
0<
#38
1J
b1111 :
b1111 A
b1111 G
1l
0K
b1111 ;
b1111 B
b1111 E
0]
12
1<
#40
0<
#42
1@
1<
#44
0<
#46
xJ
xN
0l
0m
xL
0n
b0 :
b0 A
b0 G
0o
xK
xP
xO
1]
1\
1[
b0 ;
b0 B
b0 E
1Z
02
04
06
08
1<
#48
0<
#50
x*
x,
x.
x0
xM
xI
xH
1Q
0R
1T
0?
0@
1<
#52
0<
#54
1<
#56
0<
#58
1<
#60
0<
#62
1<
#64
0<
#66
1<
#68
0<
#70
0,
00
1H
1m
1L
b101 :
b101 A
b101 G
1o
0O
0\
b101 ;
b101 B
b101 E
0Z
14
18
1<
#72
0<
#74
0*
0M
0.
x,
1J
1N
1I
1l
0m
xL
b1011 :
b1011 A
b1011 G
1n
0K
0P
0]
1\
b1011 ;
b1011 B
b1011 E
0[
12
04
16
1<
