Arbitro.vcd
$date
	Mon Jul 05 22:21:33 2021
$end
$version
	Icarus Verilog
$end
$timescale
	1ns
$end
$scope module BUF $end
$var wire 1 ! A $end
$var wire 1 " Y $end
$upscope $end
$scope module BancoPruebas_arbitro $end
$var wire 4 # state [3:0] $end
$var wire 1 $ push3_estruct $end
$var wire 1 % push3 $end
$var wire 1 & push2_estruct $end
$var wire 1 ' push2 $end
$var wire 1 ( push1_estruct $end
$var wire 1 ) push1 $end
$var wire 1 * push0_estruct $end
$var wire 1 + push0 $end
$var wire 1 , pop3_estruct $end
$var wire 1 - pop3 $end
$var wire 1 . pop2_estruct $end
$var wire 1 / pop2 $end
$var wire 1 0 pop1_estruct $end
$var wire 1 1 pop1 $end
$var wire 1 2 pop0_estruct $end
$var wire 1 3 pop0 $end
$var wire 1 4 empty3_naranja $end
$var wire 1 5 empty3_morado $end
$var wire 1 6 empty2_naranja $end
$var wire 1 7 empty2_morado $end
$var wire 1 8 empty1_naranja $end
$var wire 1 9 empty1_morado $end
$var wire 1 : empty0_naranja $end
$var wire 1 ; empty0_morado $end
$var wire 8 < empties_estruct [7:0] $end
$var wire 8 = empties [7:0] $end
$var wire 1 > clk $end
$var wire 1 ? almost_full3 $end
$var wire 1 @ almost_full2 $end
$var wire 1 A almost_full1 $end
$var wire 1 B almost_full0 $end
$scope module Probador $end
$var wire 1 % push3 $end
$var wire 1 ' push2 $end
$var wire 1 ) push1 $end
$var wire 1 + push0 $end
$var wire 1 - pop3 $end
$var wire 1 / pop2 $end
$var wire 1 1 pop1 $end
$var wire 1 3 pop0 $end
$var wire 8 C empties_estruct [7:0] $end
$var wire 8 D empties [7:0] $end
$var reg 1 B almost_full0 $end
$var reg 1 A almost_full1 $end
$var reg 1 @ almost_full2 $end
$var reg 1 ? almost_full3 $end
$var reg 1 > clk $end
$var reg 1 ; empty0_morado $end
$var reg 1 : empty0_naranja $end
$var reg 1 9 empty1_morado $end
$var reg 1 8 empty1_naranja $end
$var reg 1 7 empty2_morado $end
$var reg 1 6 empty2_naranja $end
$var reg 1 5 empty3_morado $end
$var reg 1 4 empty3_naranja $end
$var reg 4 E state [3:0] $end
$upscope $end
$scope module arbitro_conductual $end
$var wire 1 B almost_full0 $end
$var wire 1 A almost_full1 $end
$var wire 1 @ almost_full2 $end
$var wire 1 ? almost_full3 $end
$var wire 1 > clk $end
$var wire 1 ; empty0_morado $end
$var wire 1 : empty0_naranja $end
$var wire 1 9 empty1_morado $end
$var wire 1 8 empty1_naranja $end
$var wire 1 7 empty2_morado $end
$var wire 1 6 empty2_naranja $end
$var wire 1 5 empty3_morado $end
$var wire 1 4 empty3_naranja $end
$var wire 4 F state [3:0] $end
$var reg 8 G empties [7:0] $end
$var reg 1 3 pop0 $end
$var reg 1 1 pop1 $end
$var reg 1 / pop2 $end
$var reg 1 - pop3 $end
$var reg 1 + push0 $end
$var reg 1 ) push1 $end
$var reg 1 ' push2 $end
$var reg 1 % push3 $end
$upscope $end
$scope module arbitro_estructural $end
$var wire 1 B almost_full0 $end
$var wire 1 A almost_full1 $end
$var wire 1 @ almost_full2 $end
$var wire 1 ? almost_full3 $end
$var wire 1 > clk $end
$var wire 1 ; empty0_morado $end
$var wire 1 : empty0_naranja $end
$var wire 1 9 empty1_morado $end
$var wire 1 8 empty1_naranja $end
$var wire 1 7 empty2_morado $end
$var wire 1 6 empty2_naranja $end
$var wire 1 5 empty3_morado $end
$var wire 1 4 empty3_naranja $end
$var wire 1 ( push1 $end
$var wire 1 & push2 $end
$var wire 1 $ push3 $end
$var wire 4 H state [3:0] $end
$var wire 1 * push0 $end
$var wire 1 , pop3 $end
$var wire 1 . pop2 $end
$var wire 1 0 pop1 $end
$var wire 1 2 pop0 $end
$var wire 8 I empties [7:0] $end
$var wire 1 J _21_ $end
$var wire 1 K _20_ $end
$var wire 1 L _19_ $end
$var wire 1 M _18_ $end
$var wire 1 N _17_ $end
$var wire 1 O _16_ $end
$var wire 1 P _15_ $end
$var wire 1 Q _14_ $end
$var wire 1 R _13_ $end
$var wire 1 S _12_ $end
$var wire 1 T _11_ $end
$var wire 1 U _10_ $end
$var wire 1 V _09_ $end
$var wire 1 W _08_ $end
$var wire 1 X _07_ $end
$var wire 1 Y _06_ $end
$var wire 1 Z _05_ $end
$var wire 1 [ _04_ $end
$var wire 1 \ _03_ $end
$var wire 1 ] _02_ $end
$var wire 1 ^ _01_ $end
$var wire 1 _ _00_ $end
$scope module _22_ $end
$var wire 1 ` A $end
$var wire 1 _ Y $end
$upscope $end
$scope module _23_ $end
$var wire 1 5 A $end
$var wire 1 ^ Y $end
$upscope $end
$scope module _24_ $end
$var wire 1 7 A $end
$var wire 1 ] Y $end
$upscope $end
$scope module _25_ $end
$var wire 1 9 A $end
$var wire 1 \ Y $end
$upscope $end
$scope module _26_ $end
$var wire 1 6 A $end
$var wire 1 [ Y $end
$upscope $end
$scope module _27_ $end
$var wire 1 ; A $end
$var wire 1 Z Y $end
$upscope $end
$scope module _28_ $end
$var wire 1 4 A $end
$var wire 1 Y Y $end
$upscope $end
$scope module _29_ $end
$var wire 1 a A $end
$var wire 1 X Y $end
$upscope $end
$scope module _30_ $end
$var wire 1 b A $end
$var wire 1 c B $end
$var wire 1 W Y $end
$upscope $end
$scope module _31_ $end
$var wire 1 W A $end
$var wire 1 V Y $end
$upscope $end
$scope module _32_ $end
$var wire 1 d A $end
$var wire 1 X B $end
$var wire 1 U Y $end
$upscope $end
$scope module _33_ $end
$var wire 1 _ A $end
$var wire 1 e B $end
$var wire 1 T Y $end
$upscope $end
$scope module _34_ $end
$var wire 1 V A $end
$var wire 1 T B $end
$var wire 1 S Y $end
$upscope $end
$scope module _35_ $end
$var wire 1 W A $end
$var wire 1 U B $end
$var wire 1 R Y $end
$upscope $end
$scope module _36_ $end
$var wire 1 ^ A $end
$var wire 1 S B $end
$var wire 1 f Y $end
$upscope $end
$scope module _37_ $end
$var wire 1 ] A $end
$var wire 1 S B $end
$var wire 1 g Y $end
$upscope $end
$scope module _38_ $end
$var wire 1 \ A $end
$var wire 1 S B $end
$var wire 1 h Y $end
$upscope $end
$scope module _39_ $end
$var wire 1 [ A $end
$var wire 1 S B $end
$var wire 1 i Y $end
$upscope $end
$scope module _40_ $end
$var wire 1 Z A $end
$var wire 1 S B $end
$var wire 1 j Y $end
$upscope $end
$scope module _41_ $end
$var wire 1 Y A $end
$var wire 1 S B $end
$var wire 1 k Y $end
$upscope $end
$scope module _42_ $end
$var wire 1 8 A $end
$var wire 1 R B $end
$var wire 1 Q Y $end
$upscope $end
$scope module _43_ $end
$var wire 1 Q A $end
$var wire 1 l Y $end
$upscope $end
$scope module _44_ $end
$var wire 1 : A $end
$var wire 1 R B $end
$var wire 1 P Y $end
$upscope $end
$scope module _45_ $end
$var wire 1 P A $end
$var wire 1 m Y $end
$upscope $end
$scope module _46_ $end
$var wire 1 [ A $end
$var wire 1 4 B $end
$var wire 1 O Y $end
$upscope $end
$scope module _47_ $end
$var wire 1 : A $end
$var wire 1 O B $end
$var wire 1 N Y $end
$upscope $end
$scope module _48_ $end
$var wire 1 Q A $end
$var wire 1 N B $end
$var wire 1 , Y $end
$upscope $end
$scope module _49_ $end
$var wire 1 [ A $end
$var wire 1 : B $end
$var wire 1 M Y $end
$upscope $end
$scope module _50_ $end
$var wire 1 Q A $end
$var wire 1 M B $end
$var wire 1 . Y $end
$upscope $end
$scope module _51_ $end
$var wire 1 8 A $end
$var wire 1 P B $end
$var wire 1 0 Y $end
$upscope $end
$scope module _52_ $end
$var wire 1 : A $end
$var wire 1 S B $end
$var wire 1 2 Y $end
$upscope $end
$scope module _53_ $end
$var wire 1 B A $end
$var wire 1 A B $end
$var wire 1 L Y $end
$upscope $end
$scope module _54_ $end
$var wire 1 @ A $end
$var wire 1 ? B $end
$var wire 1 K Y $end
$upscope $end
$scope module _55_ $end
$var wire 1 L A $end
$var wire 1 K B $end
$var wire 1 J Y $end
$upscope $end
$scope module _56_ $end
$var wire 1 J A $end
$var wire 1 * Y $end
$upscope $end
$upscope $end
$upscope $end
$scope module DFF $end
$var wire 1 n C $end
$var wire 1 o D $end
$var reg 1 p Q $end
$upscope $end
$scope module DFFSR $end
$var wire 1 q C $end
$var wire 1 r D $end
$var wire 1 s R $end
$var wire 1 t S $end
$var reg 1 u Q $end
$upscope $end
$enddefinitions $end
#0
$dumpvars
xu
zt
zs
zr
zq
xp
zo
zn
0m
0l
0k
0j
0i
0h
0g
0f
1e
0d
0c
0b
1a
0`
1_
1^
1]
1\
1[
1Z
1Y
0X
1W
0V
1U
0T
1S
0R
1Q
1P
0O
1N
1M
1L
1K
0J
b0 I
b1 H
b0 G
b1 F
b1 E
b0 D
b0 C
0B
0A
0@
0?
0>
b0 =
b0 <
0;
0:
09
08
07
06
05
04
03
02
01
00
0/
0.
0-
0,
1+
1*
1)
1(
1'
1&
1%
1$
b1 #
z"
z!
$end
#2
1>
#4
0>
#6
13
12
1R
0S
0U
1V
0W
1T
1X
0a
1b
0e
b10 #
b10 E
b10 F
b10 H
1>
#8
0>
#10
1>
#12
0>
#14
11
03
10
b1 <
b1 C
b1 I
1m
0P
0M
02
b1 =
b1 D
b1 G
1:
1>
#16
0>
#18
0%
0'
0)
0+
0$
0&
0(
0*
1J
0L
1A
1>
#20
0>
#22
1/
01
1.
b11 <
b11 C
b11 I
1l
0Q
00
b11 =
b11 D
b11 G
18
1>
#24
0>
#26
0B
1>
#28
0>
#30
1-
0/
1,
0N
0.
b111 <
b111 C
b111 I
1i
1O
1M
b111 =
b111 D
b111 G
0[
16
1>
#32
0>
#34
0B
1>
#36
0>
#38
0-
0,
1N
b1111 <
b1111 C
b1111 I
1k
0O
b1111 =
b1111 D
b1111 G
0Y
14
1>
#40
0>
#42
1B
1>
#44
0>
#46
13
0k
0i
0l
b0 <
b0 C
b0 I
0m
1Q
00
1P
12
1Y
1[
b0 =
b0 D
b0 G
04
06
08
0:
1>
#48
0>
#50
1%
1'
1)
1+
1$
1&
1(
1*
0J
1L
0A
0B
1>
#52
0>
#54
1>
#56
0>
#58
1>
#60
0>
#62
1>
#64
0>
#66
1>
#68
0>
#70
11
03
0N
10
1i
1O
b101 <
b101 C
b101 I
1m
0P
1M
02
0[
b101 =
b101 D
b101 G
16
1:
1>
#72
0>
#74
1/
01
1.
1N
0,
1k
0i
0M
b1011 <
b1011 C
b1011 I
1l
0O
0Q
00
0Y
1[
b1011 =
b1011 D
b1011 G
14
06
18
1>
