contador.vcd
$date
	Mon Jun 28 20:28:58 2021
$end
$version
	Icarus Verilog
$end
$timescale
	100ps
$end
$scope module BUF $end
$var wire 1 ! A $end
$var wire 1 " Y $end
$upscope $end
$scope module BancoPruebas $end
$var wire 1 # reset $end
$var wire 1 $ push $end
$var wire 1 % pop $end
$var wire 10 & data_out [9:0] $end
$var wire 10 ' data_in [9:0] $end
$var wire 1 ( clk $end
$var wire 1 ) almost_full $end
$var wire 1 * almost_empty $end
$scope module UnFiFo $end
$var wire 1 # reset $end
$var wire 1 $ push $end
$var wire 1 % pop $end
$var wire 10 + data_out [9:0] $end
$var wire 10 , data_in [9:0] $end
$var wire 1 ( clk $end
$var reg 1 * almost_empty $end
$var reg 1 ) almost_full $end
$var reg 3 - contador [2:0] $end
$var reg 3 . rd_ptr [2:0] $end
$var reg 1 / re_a $end
$var reg 1 0 we_a $end
$var reg 3 1 wr_ptr [2:0] $end
$scope module memory $end
$var wire 3 2 addr_ra [2:0] $end
$var wire 3 3 addr_wa [2:0] $end
$var wire 1 / re_a $end
$var wire 1 0 we_a $end
$var wire 1 # reset $end
$var wire 10 4 data_a [9:0] $end
$var wire 1 ( clk $end
$var reg 10 5 q_a [9:0] $end
$upscope $end
$upscope $end
$scope module prob $end
$var wire 1 6 almost_empty $end
$var wire 1 7 almost_full $end
$var wire 10 8 data_out [9:0] $end
$var reg 1 ( clk $end
$var reg 10 9 data_in [9:0] $end
$var reg 1 % pop $end
$var reg 1 $ push $end
$var reg 1 # reset $end
$upscope $end
$upscope $end
$scope module DFF $end
$var wire 1 : C $end
$var wire 1 ; D $end
$var reg 1 < Q $end
$upscope $end
$scope module DFFSR $end
$var wire 1 = C $end
$var wire 1 > D $end
$var wire 1 ? R $end
$var wire 1 @ S $end
$var reg 1 A Q $end
$upscope $end
$scope module NAND $end
$var wire 1 B A $end
$var wire 1 C B $end
$var wire 1 D Y $end
$upscope $end
$scope module NOR $end
$var wire 1 E A $end
$var wire 1 F B $end
$var wire 1 G Y $end
$upscope $end
$scope module NOT $end
$var wire 1 H A $end
$var wire 1 I Y $end
$upscope $end
$enddefinitions $end
#0
$dumpvars
zI
zH
xG
zF
zE
xD
zC
zB
xA
z@
z?
z>
z=
x<
z;
z:
bx 9
bz 8
z7
z6
bx 5
bx 4
bx 3
bx 2
bx 1
00
0/
bx .
bx -
bx ,
bx +
0*
0)
0(
bx '
bx &
x%
x$
0#
z"
z!
$end
#20
10
1*
b0 &
b0 +
b0 5
b0 -
b0 .
b0 2
b0 1
b0 3
0%
1$
b0 '
b0 ,
b0 4
b0 9
1#
1(
#40
0(
#60
b1 '
b1 ,
b1 4
b1 9
b1 -
b1 1
b1 3
1(
#80
0(
#100
b10 -
b10 1
b10 3
b10 '
b10 ,
b10 4
b10 9
1(
#120
0(
#140
0*
b11 '
b11 ,
b11 4
b11 9
b11 -
b11 1
b11 3
1(
#160
0(
#180
b100 -
b100 1
b100 3
b100 '
b100 ,
b100 4
b100 9
1(
#200
0(
#220
1)
b101 '
b101 ,
b101 4
b101 9
b101 -
b101 1
b101 3
1(
#240
0(
#260
b110 -
b110 1
b110 3
b110 '
b110 ,
b110 4
b110 9
1(
#280
0(
#300
00
b111 '
b111 ,
b111 4
b111 9
b111 -
b111 1
b111 3
1(
#320
0(
#340
b1000 '
b1000 ,
b1000 4
b1000 9
1(
#360
0(
#380
1/
1%
0$
b1001 '
b1001 ,
b1001 4
b1001 9
1(
#400
0(
#420
b110 -
b1 .
b1 2
b1010 '
b1010 ,
b1010 4
b1010 9
1(
#440
0(
#460
b1011 '
b1011 ,
b1011 4
b1011 9
b101 -
b10 .
b10 2
b1 &
b1 +
b1 5
1(
#480
0(
#500
0)
b10 &
b10 +
b10 5
b100 -
b11 .
b11 2
b1100 '
b1100 ,
b1100 4
b1100 9
1(
#520
0(
#540
b1101 '
b1101 ,
b1101 4
b1101 9
b11 -
b100 .
b100 2
b11 &
b11 +
b11 5
1(
#560
0(
#580
1*
b100 &
b100 +
b100 5
b10 -
b101 .
b101 2
b1110 '
b1110 ,
b1110 4
b1110 9
1(
#600
0(
#620
b1111 '
b1111 ,
b1111 4
b1111 9
b1 -
b110 .
b110 2
b101 &
b101 +
b101 5
1(
#640
0(
#660
0/
b110 &
b110 +
b110 5
b0 -
b111 .
b111 2
b10000 '
b10000 ,
b10000 4
b10000 9
1(
#680
0(
#700
b10001 '
b10001 ,
b10001 4
b10001 9
b0 &
b0 +
b0 5
1(
#720
0(
#740
b10010 '
b10010 ,
b10010 4
b10010 9
1(
#760
0(
#780
b10011 '
b10011 ,
b10011 4
b10011 9
1(
#800
0(
#820
b10100 '
b10100 ,
b10100 4
b10100 9
1(
#840
0(
#860
b10101 '
b10101 ,
b10101 4
b10101 9
1(
#880
0(
#900
10
1$
b10110 '
b10110 ,
b10110 4
b10110 9
1(
#920
0(
#940
1/
b10111 '
b10111 ,
b10111 4
b10111 9
b1 -
b0 1
b0 3
1(
#960
0(
#980
0/
b10110 &
b10110 +
b10110 5
b0 .
b0 2
b0 -
b1 1
b1 3
b11000 '
b11000 ,
b11000 4
b11000 9
1(
#1000
0(
#1020
0%
b11001 '
b11001 ,
b11001 4
b11001 9
b1 -
b10 1
b10 3
b0 &
b0 +
b0 5
1(
#1040
0(
#1060
b10 -
b11 1
b11 3
b11010 '
b11010 ,
b11010 4
b11010 9
1(
#1080
0(
#1100
0*
b11011 '
b11011 ,
b11011 4
b11011 9
b11 -
b100 1
b100 3
1(
#1120
0(
#1140
b100 -
b101 1
b101 3
b11100 '
b11100 ,
b11100 4
b11100 9
1(
#1160
0(
#1180
1)
b101 -
b110 1
b110 3
1(
#1200
0(
#1220
b110 -
b111 1
b111 3
1(
#1240
0(
#1260
00
b111 -
b0 1
b0 3
1(
